{
  "data": [
    {
      "id": 1069008,
      "ast": 0,
      "blk": 1,
      "dreb": 2,
      "fg3_pct": 0.2,
      "fg3a": 5,
      "fg3m": 1,
      "fg_pct": 0.333,
      "fga": 9,
      "fgm": 3,
      "ft_pct": 0,
      "fta": 0,
      "ftm": 0,
      "game": {
        "id": 45237,
        "date": "2019-01-17T00:00:00.000Z",
        "home_team_id": 4,
        "home_team_score": 114,
        "period": 4,
        "postseason": false,
        "season": 2018,
        "status": "Final",
        "time": " ",
        "visitor_team_id": 26,
        "visitor_team_score": 95
      },
      "min": "20:08",
      "oreb": 0,
      "pf": 0,
      "player": {
        "id": 415,
        "first_name": "Iman",
        "height_feet": 6,
        "height_inches": 5,
        "last_name": "Shumpert",
        "position": "G",
        "team_id": 3,
        "weight_pounds": 215
      },
      "pts": 7,
      "reb": 2,
      "stl": 0,
      "team": {
        "id": 26,
        "abbreviation": "SAC",
        "city": "Sacramento",
        "conference": "West",
        "division": "Pacific",
        "full_name": "Sacramento Kings",
        "name": "Kings"
      },
      "turnover": 2
    },
    {
      "id": 1069009,
      "ast": 4,
      "blk": 0,
      "dreb": 5,
      "fg3_pct": 0,
      "fg3a": 2,
      "fg3m": 0,
      "fg_pct": 0.2,
      "fga": 5,
      "fgm": 1,
      "ft_pct": 0,
      "fta": 0,
      "ftm": 0,
      "game": {
        "id": 45237,
        "date": "2019-01-17T00:00:00.000Z",
        "home_team_id": 4,
        "home_team_score": 114,
        "period": 4,
        "postseason": false,
        "season": 2018,
        "status": "Final",
        "time": " ",
        "visitor_team_id": 26,
        "visitor_team_score": 95
      },
      "min": "19:22",
      "oreb": 1,
      "pf": 1,
      "player": {
        "id": 49,
        "first_name": "Nemanja",
        "height_feet": 6,
        "height_inches": 10,
        "last_name": "Bjelica",
        "position": "F",
        "team_id": 10,
        "weight_pounds": 234
      },
      "pts": 2,
      "reb": 6,
      "stl": 0,
      "team": {
        "id": 26,
        "abbreviation": "SAC",
        "city": "Sacramento",
        "conference": "West",
        "division": "Pacific",
        "full_name": "Sacramento Kings",
        "name": "Kings"
      },
      "turnover": 0
    },
    {
      "id": 1069010,
      "ast": 4,
      "blk": 1,
      "dreb": 5,
      "fg3_pct": 0,
      "fg3a": 0,
      "fg3m": 0,
      "fg_pct": 0.667,
      "fga": 6,
      "fgm": 4,
      "ft_pct": 0,
      "fta": 0,
      "ftm": 0,
      "game": {
        "id": 45237,
        "date": "2019-01-17T00:00:00.000Z",
        "home_team_id": 4,
        "home_team_score": 114,
        "period": 4,
        "postseason": false,
        "season": 2018,
        "status": "Final",
        "time": " ",
        "visitor_team_id": 26,
        "visitor_team_score": 95
      },
      "min": "27:24",
      "oreb": 6,
      "pf": 2,
      "player": {
        "id": 91,
        "first_name": "Willie",
        "height_feet": 7,
        "height_inches": 0,
        "last_name": "Cauley-Stein",
        "position": "C",
        "team_id": 7,
        "weight_pounds": 240
      },
      "pts": 8,
      "reb": 11,
      "stl": 3,
      "team": {
        "id": 26,
        "abbreviation": "SAC",
        "city": "Sacramento",
        "conference": "West",
        "division": "Pacific",
        "full_name": "Sacramento Kings",
        "name": "Kings"
      },
      "turnover": 2
    },
    {
      "id": 1069011,
      "ast": 1,
      "blk": 0,
      "dreb": 1,
      "fg3_pct": 0.545,
      "fg3a": 11,
      "fg3m": 6,
      "fg_pct": 0.5,
      "fga": 18,
      "fgm": 9,
      "ft_pct": 0,
      "fta": 0,
      "ftm": 0,
      "game": {
        "id": 45237,
        "date": "2019-01-17T00:00:00.000Z",
        "home_team_id": 4,
        "home_team_score": 114,
        "period": 4,
        "postseason": false,
        "season": 2018,
        "status": "Final",
        "time": " ",
        "visitor_team_id": 26,
        "visitor_team_score": 95
      },
      "min": "32:06",
      "oreb": 0,
      "pf": 2,
      "player": {
        "id": 210,
        "first_name": "Buddy",
        "height_feet": 6,
        "height_inches": 4,
        "last_name": "Hield",
        "position": "G",
        "team_id": 26,
        "weight_pounds": 214
      },
      "pts": 24,
      "reb": 1,
      "stl": 2,
      "team": {
        "id": 26,
        "abbreviation": "SAC",
        "city": "Sacramento",
        "conference": "West",
        "division": "Pacific",
        "full_name": "Sacramento Kings",
        "name": "Kings"
      },
      "turnover": 0
    },
    {
      "id": 1069012,
      "ast": 8,
      "blk": 1,
      "dreb": 5,
      "fg3_pct": 0,
      "fg3a": 2,
      "fg3m": 0,
      "fg_pct": 0.4,
      "fga": 10,
      "fgm": 4,
      "ft_pct": 0.667,
      "fta": 3,
      "ftm": 2,
      "game": {
        "id": 45237,
        "date": "2019-01-17T00:00:00.000Z",
        "home_team_id": 4,
        "home_team_score": 114,
        "period": 4,
        "postseason": false,
        "season": 2018,
        "status": "Final",
        "time": " ",
        "visitor_team_id": 26,
        "visitor_team_score": 95
      },
      "min": "30:30",
      "oreb": 0,
      "pf": 4,
      "player": {
        "id": 161,
        "first_name": "De'Aaron",
        "height_feet": 6,
        "height_inches": 3,
        "last_name": "Fox",
        "position": "G",
        "team_id": 26,
        "weight_pounds": 175
      },
      "pts": 10,
      "reb": 5,
      "stl": 1,
      "team": {
        "id": 26,
        "abbreviation": "SAC",
        "city": "Sacramento",
        "conference": "West",
        "division": "Pacific",
        "full_name": "Sacramento Kings",
        "name": "Kings"
      },
      "turnover": 4
    },
    {
      "id": 1069013,
      "ast": 2,
      "blk": 0,
      "dreb": 1,
      "fg3_pct": 0.5,
      "fg3a": 2,
      "fg3m": 1,
      "fg_pct": 0.615,
      "fga": 13,
      "fgm": 8,
      "ft_pct": 0,
      "fta": 0,
      "ftm": 0,
      "game": {
        "id": 45237,
        "date": "2019-01-17T00:00:00.000Z",
        "home_team_id": 4,
        "home_team_score": 114,
        "period": 4,
        "postseason": false,
        "season": 2018,
        "status": "Final",
        "time": " ",
        "visitor_team_id": 26,
        "visitor_team_score": 95
      },
      "min": "27:20",
      "oreb": 0,
      "pf": 2,
      "player": {
        "id": 53,
        "first_name": "Bogdan",
        "height_feet": 6,
        "height_inches": 6,
        "last_name": "Bogdanovic",
        "position": "G",
        "team_id": 1,
        "weight_pounds": 205
      },
      "pts": 17,
      "reb": 1,
      "stl": 1,
      "team": {
        "id": 26,
        "abbreviation": "SAC",
        "city": "Sacramento",
        "conference": "West",
        "division": "Pacific",
        "full_name": "Sacramento Kings",
        "name": "Kings"
      },
      "turnover": 2
    },
    {
      "id": 1069014,
      "ast": 2,
      "blk": 0,
      "dreb": 1,
      "fg3_pct": 0.333,
      "fg3a": 3,
      "fg3m": 1,
      "fg_pct": 0.4,
      "fga": 5,
      "fgm": 2,
      "ft_pct": 0,
      "fta": 0,
      "ftm": 0,
      "game": {
        "id": 45237,
        "date": "2019-01-17T00:00:00.000Z",
        "home_team_id": 4,
        "home_team_score": 114,
        "period": 4,
        "postseason": false,
        "season": 2018,
        "status": "Final",
        "time": " ",
        "visitor_team_id": 26,
        "visitor_team_score": 95
      },
      "min": "16:22",
      "oreb": 0,
      "pf": 1,
      "player": {
        "id": 157,
        "first_name": "Yogi",
        "height_feet": 6,
        "height_inches": 0,
        "last_name": "Ferrell",
        "position": "G",
        "team_id": 13,
        "weight_pounds": 180
      },
      "pts": 5,
      "reb": 1,
      "stl": 0,
      "team": {
        "id": 26,
        "abbreviation": "SAC",
        "city": "Sacramento",
        "conference": "West",
        "division": "Pacific",
        "full_name": "Sacramento Kings",
        "name": "Kings"
      },
      "turnover": 0
    },
    {
      "id": 1069015,
      "ast": 1,
      "blk": 0,
      "dreb": 4,
      "fg3_pct": 0.5,
      "fg3a": 2,
      "fg3m": 1,
      "fg_pct": 0.545,
      "fga": 11,
      "fgm": 6,
      "ft_pct": 0.5,
      "fta": 4,
      "ftm": 2,
      "game": {
        "id": 45237,
        "date": "2019-01-17T00:00:00.000Z",
        "home_team_id": 4,
        "home_team_score": 114,
        "period": 4,
        "postseason": false,
        "season": 2018,
        "status": "Final",
        "time": " ",
        "visitor_team_id": 26,
        "visitor_team_score": 95
      },
      "min": "22:55",
      "oreb": 4,
      "pf": 2,
      "player": {
        "id": 24,
        "first_name": "Marvin",
        "height_feet": 6,
        "height_inches": 11,
        "last_name": "Bagley III",
        "position": "F",
        "team_id": 26,
        "weight_pounds": 234
      },
      "pts": 15,
      "reb": 8,
      "stl": 0,
      "team": {
        "id": 26,
        "abbreviation": "SAC",
        "city": "Sacramento",
        "conference": "West",
        "division": "Pacific",
        "full_name": "Sacramento Kings",
        "name": "Kings"
      },
      "turnover": 3
    },
    {
      "id": 1069016,
      "ast": 2,
      "blk": 0,
      "dreb": 3,
      "fg3_pct": 0.25,
      "fg3a": 4,
      "fg3m": 1,
      "fg_pct": 0.4,
      "fga": 5,
      "fgm": 2,
      "ft_pct": 0.5,
      "fta": 2,
      "ftm": 1,
      "game": {
        "id": 45237,
        "date": "2019-01-17T00:00:00.000Z",
        "home_team_id": 4,
        "home_team_score": 114,
        "period": 4,
        "postseason": false,
        "season": 2018,
        "status": "Final",
        "time": " ",
        "visitor_team_id": 26,
        "visitor_team_score": 95
      },
      "min": "24:07",
      "oreb": 0,
      "pf": 2,
      "player": {
        "id": 235,
        "first_name": "Justin",
        "height_feet": 6,
        "height_inches": 8,
        "last_name": "Jackson",
        "position": "F",
        "team_id": 17,
        "weight_pounds": 210
      },
      "pts": 6,
      "reb": 3,
      "stl": 0,
      "team": {
        "id": 26,
        "abbreviation": "SAC",
        "city": "Sacramento",
        "conference": "West",
        "division": "Pacific",
        "full_name": "Sacramento Kings",
        "name": "Kings"
      },
      "turnover": 0
    },
    {
      "id": 1069017,
      "ast": 4,
      "blk": 0,
      "dreb": 4,
      "fg3_pct": 0,
      "fg3a": 0,
      "fg3m": 0,
      "fg_pct": 0,
      "fga": 3,
      "fgm": 0,
      "ft_pct": 0.25,
      "fta": 4,
      "ftm": 1,
      "game": {
        "id": 45237,
        "date": "2019-01-17T00:00:00.000Z",
        "home_team_id": 4,
        "home_team_score": 114,
        "period": 4,
        "postseason": false,
        "season": 2018,
        "status": "Final",
        "time": " ",
        "visitor_team_id": 26,
        "visitor_team_score": 95
      },
      "min": "16:14",
      "oreb": 0,
      "pf": 6,
      "player": {
        "id": 174,
        "first_name": "Harry",
        "height_feet": 6,
        "height_inches": 10,
        "last_name": "Giles III",
        "position": "F-C",
        "team_id": 13,
        "weight_pounds": 240
      },
      "pts": 1,
      "reb": 4,
      "stl": 0,
      "team": {
        "id": 26,
        "abbreviation": "SAC",
        "city": "Sacramento",
        "conference": "West",
        "division": "Pacific",
        "full_name": "Sacramento Kings",
        "name": "Kings"
      },
      "turnover": 4
    },
    {
      "id": 1069018,
      "ast": 0,
      "blk": 0,
      "dreb": 0,
      "fg3_pct": 0,
      "fg3a": 0,
      "fg3m": 0,
      "fg_pct": 0,
      "fga": 0,
      "fgm": 0,
      "ft_pct": 0,
      "fta": 0,
      "ftm": 0,
      "game": {
        "id": 45237,
        "date": "2019-01-17T00:00:00.000Z",
        "home_team_id": 4,
        "home_team_score": 114,
        "period": 4,
        "postseason": false,
        "season": 2018,
        "status": "Final",
        "time": " ",
        "visitor_team_id": 26,
        "visitor_team_score": 95
      },
      "min": "1:46",
      "oreb": 0,
      "pf": 0,
      "player": {
        "id": 299,
        "first_name": "Frank",
        "height_feet": 5,
        "height_inches": 11,
        "last_name": "Mason",
        "position": "G",
        "team_id": 23,
        "weight_pounds": 190
      },
      "pts": 0,
      "reb": 0,
      "stl": 0,
      "team": {
        "id": 26,
        "abbreviation": "SAC",
        "city": "Sacramento",
        "conference": "West",
        "division": "Pacific",
        "full_name": "Sacramento Kings",
        "name": "Kings"
      },
      "turnover": 0
    },
    {
      "id": 1069019,
      "ast": 0,
      "blk": 0,
      "dreb": 0,
      "fg3_pct": 0,
      "fg3a": 2,
      "fg3m": 0,
      "fg_pct": 0,
      "fga": 3,
      "fgm": 0,
      "ft_pct": 0,
      "fta": 0,
      "ftm": 0,
      "game": {
        "id": 45237,
        "date": "2019-01-17T00:00:00.000Z",
        "home_team_id": 4,
        "home_team_score": 114,
        "period": 4,
        "postseason": false,
        "season": 2018,
        "status": "Final",
        "time": " ",
        "visitor_team_id": 26,
        "visitor_team_score": 95
      },
      "min": "1:46",
      "oreb": 0,
      "pf": 0,
      "player": {
        "id": 309,
        "first_name": "Ben",
        "height_feet": null,
        "height_inches": null,
        "last_name": "McLemore",
        "position": "G",
        "team_id": 25,
        "weight_pounds": null
      },
      "pts": 0,
      "reb": 0,
      "stl": 0,
      "team": {
        "id": 26,
        "abbreviation": "SAC",
        "city": "Sacramento",
        "conference": "West",
        "division": "Pacific",
        "full_name": "Sacramento Kings",
        "name": "Kings"
      },
      "turnover": 0
    },
    {
      "id": 1069020,
      "ast": null,
      "blk": null,
      "dreb": null,
      "fg3_pct": null,
      "fg3a": null,
      "fg3m": null,
      "fg_pct": null,
      "fga": null,
      "fgm": null,
      "ft_pct": null,
      "fta": null,
      "ftm": null,
      "game": {
        "id": 45237,
        "date": "2019-01-17T00:00:00.000Z",
        "home_team_id": 4,
        "home_team_score": 114,
        "period": 4,
        "postseason": false,
        "season": 2018,
        "status": "Final",
        "time": " ",
        "visitor_team_id": 26,
        "visitor_team_score": 95
      },
      "min": null,
      "oreb": null,
      "pf": null,
      "player": {
        "id": 263,
        "first_name": "Kosta",
        "height_feet": 7,
        "height_inches": 0,
        "last_name": "Koufos",
        "position": "C",
        "team_id": 26,
        "weight_pounds": 245
      },
      "pts": null,
      "reb": null,
      "stl": null,
      "team": {
        "id": 26,
        "abbreviation": "SAC",
        "city": "Sacramento",
        "conference": "West",
        "division": "Pacific",
        "full_name": "Sacramento Kings",
        "name": "Kings"
      },
      "turnover": null
    },
    {
      "id": 1069021,
      "ast": 3,
      "blk": 0,
      "dreb": 4,
      "fg3_pct": 0,
      "fg3a": 2,
      "fg3m": 0,
      "fg_pct": 0.2,
      "fga": 5,
      "fgm": 1,
      "ft_pct": 0.833,
      "fta": 6,
      "ftm": 5,
      "game": {
        "id": 45237,
        "date": "2019-01-17T00:00:00.000Z",
        "home_team_id": 4,
        "home_team_score": 114,
        "period": 4,
        "postseason": false,
        "season": 2018,
        "status": "Final",
        "time": " ",
        "visitor_team_id": 26,
        "visitor_team_score": 95
      },
      "min": "26:43",
      "oreb": 1,
      "pf": 3,
      "player": {
        "id": 33,
        "first_name": "Nicolas",
        "height_feet": 6,
        "height_inches": 8,
        "last_name": "Batum",
        "position": "F-G",
        "team_id": 13,
        "weight_pounds": 200
      },
      "pts": 7,
      "reb": 5,
      "stl": 2,
      "team": {
        "id": 4,
        "abbreviation": "CHA",
        "city": "Charlotte",
        "conference": "East",
        "division": "Southeast",
        "full_name": "Charlotte Hornets",
        "name": "Hornets"
      },
      "turnover": 3
    },
    {
      "id": 1069022,
      "ast": 2,
      "blk": 1,
      "dreb": 5,
      "fg3_pct": 0.5,
      "fg3a": 6,
      "fg3m": 3,
      "fg_pct": 0.5,
      "fga": 6,
      "fgm": 3,
      "ft_pct": 0.5,
      "fta": 2,
      "ftm": 1,
      "game": {
        "id": 45237,
        "date": "2019-01-17T00:00:00.000Z",
        "home_team_id": 4,
        "home_team_score": 114,
        "period": 4,
        "postseason": false,
        "season": 2018,
        "status": "Final",
        "time": " ",
        "visitor_team_id": 26,
        "visitor_team_score": 95
      },
      "min": "29:30",
      "oreb": 0,
      "pf": 2,
      "player": {
        "id": 482,
        "first_name": "Marvin",
        "height_feet": 6,
        "height_inches": 9,
        "last_name": "Williams",
        "position": "F",
        "team_id": 17,
        "weight_pounds": 237
      },
      "pts": 10,
      "reb": 5,
      "stl": 3,
      "team": {
        "id": 4,
        "abbreviation": "CHA",
        "city": "Charlotte",
        "conference": "East",
        "division": "Southeast",
        "full_name": "Charlotte Hornets",
        "name": "Hornets"
      },
      "turnover": 0
    },
    {
      "id": 1069023,
      "ast": 0,
      "blk": 1,
      "dreb": 1,
      "fg3_pct": 0,
      "fg3a": 0,
      "fg3m": 0,
      "fg_pct": 0,
      "fga": 0,
      "fgm": 0,
      "ft_pct": 0,
      "fta": 0,
      "ftm": 0,
      "game": {
        "id": 45237,
        "date": "2019-01-17T00:00:00.000Z",
        "home_team_id": 4,
        "home_team_score": 114,
        "period": 4,
        "postseason": false,
        "season": 2018,
        "status": "Final",
        "time": " ",
        "visitor_team_id": 26,
        "visitor_team_score": 95
      },
      "min": "9:25",
      "oreb": 1,
      "pf": 0,
      "player": {
        "id": 48,
        "first_name": "Bismack",
        "height_feet": 6,
        "height_inches": 9,
        "last_name": "Biyombo",
        "position": "C",
        "team_id": 4,
        "weight_pounds": 255
      },
      "pts": 0,
      "reb": 2,
      "stl": 0,
      "team": {
        "id": 4,
        "abbreviation": "CHA",
        "city": "Charlotte",
        "conference": "East",
        "division": "Southeast",
        "full_name": "Charlotte Hornets",
        "name": "Hornets"
      },
      "turnover": 0
    },
    {
      "id": 1069024,
      "ast": 1,
      "blk": 0,
      "dreb": 4,
      "fg3_pct": 0.286,
      "fg3a": 7,
      "fg3m": 2,
      "fg_pct": 0.357,
      "fga": 14,
      "fgm": 5,
      "ft_pct": 1,
      "fta": 2,
      "ftm": 2,
      "game": {
        "id": 45237,
        "date": "2019-01-17T00:00:00.000Z",
        "home_team_id": 4,
        "home_team_score": 114,
        "period": 4,
        "postseason": false,
        "season": 2018,
        "status": "Final",
        "time": " ",
        "visitor_team_id": 26,
        "visitor_team_score": 95
      },
      "min": "26:19",
      "oreb": 1,
      "pf": 1,
      "player": {
        "id": 267,
        "first_name": "Jeremy",
        "height_feet": 6,
        "height_inches": 5,
        "last_name": "Lamb",
        "position": "G",
        "team_id": 12,
        "weight_pounds": 185
      },
      "pts": 14,
      "reb": 5,
      "stl": 2,
      "team": {
        "id": 4,
        "abbreviation": "CHA",
        "city": "Charlotte",
        "conference": "East",
        "division": "Southeast",
        "full_name": "Charlotte Hornets",
        "name": "Hornets"
      },
      "turnover": 3
    },
    {
      "id": 1069025,
      "ast": 5,
      "blk": 1,
      "dreb": 2,
      "fg3_pct": 0.3,
      "fg3a": 10,
      "fg3m": 3,
      "fg_pct": 0.429,
      "fga": 21,
      "fgm": 9,
      "ft_pct": 1,
      "fta": 2,
      "ftm": 2,
      "game": {
        "id": 45237,
        "date": "2019-01-17T00:00:00.000Z",
        "home_team_id": 4,
        "home_team_score": 114,
        "period": 4,
        "postseason": false,
        "season": 2018,
        "status": "Final",
        "time": " ",
        "visitor_team_id": 26,
        "visitor_team_score": 95
      },
      "min": "28:42",
      "oreb": 2,
      "pf": 0,
      "player": {
        "id": 465,
        "first_name": "Kemba",
        "height_feet": 6,
        "height_inches": 1,
        "last_name": "Walker",
        "position": "G",
        "team_id": 20,
        "weight_pounds": 184
      },
      "pts": 23,
      "reb": 4,
      "stl": 0,
      "team": {
        "id": 4,
        "abbreviation": "CHA",
        "city": "Charlotte",
        "conference": "East",
        "division": "Southeast",
        "full_name": "Charlotte Hornets",
        "name": "Hornets"
      },
      "turnover": 2
    },
    {
      "id": 1069026,
      "ast": 1,
      "blk": 1,
      "dreb": 12,
      "fg3_pct": 0.5,
      "fg3a": 2,
      "fg3m": 1,
      "fg_pct": 0.444,
      "fga": 9,
      "fgm": 4,
      "ft_pct": 1,
      "fta": 2,
      "ftm": 2,
      "game": {
        "id": 45237,
        "date": "2019-01-17T00:00:00.000Z",
        "home_team_id": 4,
        "home_team_score": 114,
        "period": 4,
        "postseason": false,
        "season": 2018,
        "status": "Final",
        "time": " ",
        "visitor_team_id": 26,
        "visitor_team_score": 95
      },
      "min": "25:30",
      "oreb": 4,
      "pf": 4,
      "player": {
        "id": 207,
        "first_name": "Willy",
        "height_feet": 6,
        "height_inches": 11,
        "last_name": "Hernangomez",
        "position": "C",
        "team_id": 19,
        "weight_pounds": 240
      },
      "pts": 11,
      "reb": 16,
      "stl": 1,
      "team": {
        "id": 4,
        "abbreviation": "CHA",
        "city": "Charlotte",
        "conference": "East",
        "division": "Southeast",
        "full_name": "Charlotte Hornets",
        "name": "Hornets"
      },
      "turnover": 1
    },
    {
      "id": 1069027,
      "ast": 1,
      "blk": 0,
      "dreb": 3,
      "fg3_pct": 0.333,
      "fg3a": 3,
      "fg3m": 1,
      "fg_pct": 0.667,
      "fga": 9,
      "fgm": 6,
      "ft_pct": 0.5,
      "fta": 4,
      "ftm": 2,
      "game": {
        "id": 45237,
        "date": "2019-01-17T00:00:00.000Z",
        "home_team_id": 4,
        "home_team_score": 114,
        "period": 4,
        "postseason": false,
        "season": 2018,
        "status": "Final",
        "time": " ",
        "visitor_team_id": 26,
        "visitor_team_score": 95
      },
      "min": "22:20",
      "oreb": 1,
      "pf": 0,
      "player": {
        "id": 62,
        "first_name": "Miles",
        "height_feet": 6,
        "height_inches": 7,
        "last_name": "Bridges",
        "position": "F",
        "team_id": 4,
        "weight_pounds": 225
      },
      "pts": 15,
      "reb": 4,
      "stl": 0,
      "team": {
        "id": 4,
        "abbreviation": "CHA",
        "city": "Charlotte",
        "conference": "East",
        "division": "Southeast",
        "full_name": "Charlotte Hornets",
        "name": "Hornets"
      },
      "turnover": 0
    },
    {
      "id": 1069028,
      "ast": 1,
      "blk": 0,
      "dreb": 1,
      "fg3_pct": 0,
      "fg3a": 2,
      "fg3m": 0,
      "fg_pct": 0.571,
      "fga": 7,
      "fgm": 4,
      "ft_pct": 1,
      "fta": 7,
      "ftm": 7,
      "game": {
        "id": 45237,
        "date": "2019-01-17T00:00:00.000Z",
        "home_team_id": 4,
        "home_team_score": 114,
        "period": 4,
        "postseason": false,
        "season": 2018,
        "status": "Final",
        "time": " ",
        "visitor_team_id": 26,
        "visitor_team_score": 95
      },
      "min": "30:15",
      "oreb": 1,
      "pf": 2,
      "player": {
        "id": 255,
        "first_name": "Michael",
        "height_feet": 6,
        "height_inches": 7,
        "last_name": "Kidd-Gilchrist",
        "position": "F",
        "team_id": 7,
        "weight_pounds": 232
      },
      "pts": 15,
      "reb": 2,
      "stl": 2,
      "team": {
        "id": 4,
        "abbreviation": "CHA",
        "city": "Charlotte",
        "conference": "East",
        "division": "Southeast",
        "full_name": "Charlotte Hornets",
        "name": "Hornets"
      },
      "turnover": 0
    },
    {
      "id": 1069029,
      "ast": 0,
      "blk": 0,
      "dreb": 0,
      "fg3_pct": 0,
      "fg3a": 3,
      "fg3m": 0,
      "fg_pct": 0,
      "fga": 3,
      "fgm": 0,
      "ft_pct": 0,
      "fta": 0,
      "ftm": 0,
      "game": {
        "id": 45237,
        "date": "2019-01-17T00:00:00.000Z",
        "home_team_id": 4,
        "home_team_score": 114,
        "period": 4,
        "postseason": false,
        "season": 2018,
        "status": "Final",
        "time": " ",
        "visitor_team_id": 26,
        "visitor_team_score": 95
      },
      "min": "9:14",
      "oreb": 0,
      "pf": 0,
      "player": {
        "id": 180,
        "first_name": "Devonte'",
        "height_feet": 6,
        "height_inches": 2,
        "last_name": "Graham",
        "position": "G",
        "team_id": 19,
        "weight_pounds": 185
      },
      "pts": 0,
      "reb": 0,
      "stl": 0,
      "team": {
        "id": 4,
        "abbreviation": "CHA",
        "city": "Charlotte",
        "conference": "East",
        "division": "Southeast",
        "full_name": "Charlotte Hornets",
        "name": "Hornets"
      },
      "turnover": 0
    },
    {
      "id": 1069030,
      "ast": 6,
      "blk": 0,
      "dreb": 1,
      "fg3_pct": 0,
      "fg3a": 1,
      "fg3m": 0,
      "fg_pct": 0.5,
      "fga": 10,
      "fgm": 5,
      "ft_pct": 1,
      "fta": 4,
      "ftm": 4,
      "game": {
        "id": 45237,
        "date": "2019-01-17T00:00:00.000Z",
        "home_team_id": 4,
        "home_team_score": 114,
        "period": 4,
        "postseason": false,
        "season": 2018,
        "status": "Final",
        "time": " ",
        "visitor_team_id": 26,
        "visitor_team_score": 95
      },
      "min": "17:32",
      "oreb": 1,
      "pf": 3,
      "player": {
        "id": 363,
        "first_name": "Tony",
        "height_feet": 6,
        "height_inches": 2,
        "last_name": "Parker",
        "position": "G",
        "team_id": 4,
        "weight_pounds": 185
      },
      "pts": 14,
      "reb": 2,
      "stl": 1,
      "team": {
        "id": 4,
        "abbreviation": "CHA",
        "city": "Charlotte",
        "conference": "East",
        "division": "Southeast",
        "full_name": "Charlotte Hornets",
        "name": "Hornets"
      },
      "turnover": 2
    },
    {
      "id": 1069031,
      "ast": 1,
      "blk": 0,
      "dreb": 1,
      "fg3_pct": 0.5,
      "fg3a": 2,
      "fg3m": 1,
      "fg_pct": 0.667,
      "fga": 3,
      "fgm": 2,
      "ft_pct": 0,
      "fta": 0,
      "ftm": 0,
      "game": {
        "id": 45237,
        "date": "2019-01-17T00:00:00.000Z",
        "home_team_id": 4,
        "home_team_score": 114,
        "period": 4,
        "postseason": false,
        "season": 2018,
        "status": "Final",
        "time": " ",
        "visitor_team_id": 26,
        "visitor_team_score": 95
      },
      "min": "13:10",
      "oreb": 0,
      "pf": 1,
      "player": {
        "id": 324,
        "first_name": "Malik",
        "height_feet": 6,
        "height_inches": 3,
        "last_name": "Monk",
        "position": "G",
        "team_id": 14,
        "weight_pounds": 200
      },
      "pts": 5,
      "reb": 1,
      "stl": 0,
      "team": {
        "id": 4,
        "abbreviation": "CHA",
        "city": "Charlotte",
        "conference": "East",
        "division": "Southeast",
        "full_name": "Charlotte Hornets",
        "name": "Hornets"
      },
      "turnover": 2
    },
    {
      "id": 1069032,
      "ast": 0,
      "blk": 0,
      "dreb": 0,
      "fg3_pct": 0,
      "fg3a": 0,
      "fg3m": 0,
      "fg_pct": 0,
      "fga": 0,
      "fgm": 0,
      "ft_pct": 0,
      "fta": 0,
      "ftm": 0,
      "game": {
        "id": 45237,
        "date": "2019-01-17T00:00:00.000Z",
        "home_team_id": 4,
        "home_team_score": 114,
        "period": 4,
        "postseason": false,
        "season": 2018,
        "status": "Final",
        "time": " ",
        "visitor_team_id": 26,
        "visitor_team_score": 95
      },
      "min": "1:20",
      "oreb": 0,
      "pf": 0,
      "player": {
        "id": 23,
        "first_name": "Dwayne",
        "height_feet": 6,
        "height_inches": 7,
        "last_name": "Bacon",
        "position": "G-F",
        "team_id": 20,
        "weight_pounds": 221
      },
      "pts": 0,
      "reb": 0,
      "stl": 0,
      "team": {
        "id": 4,
        "abbreviation": "CHA",
        "city": "Charlotte",
        "conference": "East",
        "division": "Southeast",
        "full_name": "Charlotte Hornets",
        "name": "Hornets"
      },
      "turnover": 0
    }
  ],
  "meta": {
    "total_pages": 46393,
    "current_page": 1,
    "next_page": 2,
    "per_page": 25,
    "total_count": 1159801
  }
}